%YAML 1.1
%TAG !u! tag:unity3d.com,2011:
--- !u!114 &11400000
MonoBehaviour:
  m_ObjectHideFlags: 0
  m_CorrespondingSourceObject: {fileID: 0}
  m_PrefabInstance: {fileID: 0}
  m_PrefabAsset: {fileID: 0}
  m_GameObject: {fileID: 0}
  m_Enabled: 1
  m_EditorHideFlags: 0
  m_Script: {fileID: 11500000, guid: 1970042c1d6e525429e4424a22bc45a4, type: 3}
  m_Name: SpaceObjects
  m_EditorClassIdentifier: 
  enemies:
  - {fileID: 389208734737546775, guid: 67fe975625c89c14da031f28b49a6363, type: 3}
  - {fileID: 2790239360303933099, guid: 170113c3147345546babd0885edf4654, type: 3}
  - {fileID: 5959304676333410921, guid: 7de03bba56e082846a4d6bab9046038f, type: 3}
  - {fileID: 694648544827695216, guid: 5ba1685310b85284a932d82786bdba03, type: 3}
  projectiles:
  - {fileID: 9213635882182487400, guid: 73d6ddce40b2038419df5044c3899b94, type: 3}
  - {fileID: 4663693107350697933, guid: a034e12b9d2a6de4184b987a4451d99e, type: 3}
  spaceship: {fileID: 8177599467540993536, guid: edcb79c0b4f8e284489c32b8ea5cce14, type: 3}
